<?xml version="1.0" encoding="UTF-8" standalone="no"?>
<!-- Created with Inkscape (http://www.inkscape.org/) -->

<svg
   xmlns:dc="http://purl.org/dc/elements/1.1/"
   xmlns:cc="http://creativecommons.org/ns#"
   xmlns:rdf="http://www.w3.org/1999/02/22-rdf-syntax-ns#"
   xmlns:svg="http://www.w3.org/2000/svg"
   xmlns="http://www.w3.org/2000/svg"
   xmlns:sodipodi="http://sodipodi.sourceforge.net/DTD/sodipodi-0.dtd"
   xmlns:inkscape="http://www.inkscape.org/namespaces/inkscape"
   width="128"
   height="128"
   viewBox="0 0 33.866666 33.866666"
   version="1.1"
   id="svg8"
   inkscape:version="0.92.3 (2405546, 2018-03-11)"
   sodipodi:docname="nitrogen.svg">
  <defs
     id="defs2" />
  <sodipodi:namedview
     id="base"
     pagecolor="#ffffff"
     bordercolor="#666666"
     borderopacity="1.0"
     inkscape:pageopacity="0.0"
     inkscape:pageshadow="2"
     inkscape:zoom="7.9195959"
     inkscape:cx="28.67888"
     inkscape:cy="72.186824"
     inkscape:document-units="mm"
     inkscape:current-layer="layer2"
     showgrid="true"
     inkscape:window-width="2560"
     inkscape:window-height="1329"
     inkscape:window-x="0"
     inkscape:window-y="0"
     inkscape:window-maximized="1"
     inkscape:snap-grids="true"
     units="px"
     width="100px">
    <inkscape:grid
       type="xygrid"
       id="grid3713"
       units="px"
       spacingx="0.26458333"
       spacingy="0.26458333" />
  </sodipodi:namedview>
  <metadata
     id="metadata5">
    <rdf:RDF>
      <cc:Work
         rdf:about="">
        <dc:format>image/svg+xml</dc:format>
        <dc:type
           rdf:resource="http://purl.org/dc/dcmitype/StillImage" />
        <dc:title />
      </cc:Work>
    </rdf:RDF>
  </metadata>
  <g
     inkscape:label="Border"
     inkscape:groupmode="layer"
     id="layer1"
     transform="translate(0,-263.13334)"
     sodipodi:insensitive="true">
    <rect
       id="rect3715"
       width="29.104166"
       height="29.104176"
       x="2.6458333"
       y="265.25"
       style="fill:#feffff;fill-opacity:1;stroke:#404080;stroke-width:1.58749998;stroke-linejoin:round;stroke-miterlimit:4;stroke-dasharray:none;stroke-opacity:1" />
  </g>
  <g
     inkscape:groupmode="layer"
     id="layer2"
     inkscape:label="Icon Content">
    <g
       id="g838"
       transform="rotate(-90,18.928631,18.00259)"
       style="fill:#c8c8fa;fill-opacity:1">
      <path
         sodipodi:nodetypes="ccccc"
         inkscape:connector-curvature="0"
         id="rect6510"
         d="m 13.229166,10.054167 c 1.322917,1.322917 5.291667,1.322917 6.614583,0 1e-6,2.645833 1e-6,13.229166 0,15.875 -1.322916,1.322916 -5.291666,1.322916 -6.614583,0 0,0 1e-6,-13.229167 0,-15.875 z"
         style="fill:#c8c8fa;fill-opacity:1;stroke:#000000;stroke-width:0.26499999;stroke-linecap:round;stroke-linejoin:round;stroke-miterlimit:4;stroke-dasharray:none;stroke-opacity:1" />
      <path
         inkscape:connector-curvature="0"
         id="path829"
         d="M 16.536458,6.1031346 V 4.7802179"
         style="fill:#c8c8fa;stroke:#000000;stroke-width:0.26458332px;stroke-linecap:butt;stroke-linejoin:miter;stroke-opacity:1;fill-opacity:1" />
      <path
         inkscape:connector-curvature="0"
         id="rect6516"
         d="m 15.875,5.7927976 h 1.322916 V 7.1157142 H 15.875 Z"
         style="fill:#c8c8fa;fill-opacity:1;stroke:#000000;stroke-width:0.26499999;stroke-linecap:round;stroke-linejoin:miter;stroke-miterlimit:4;stroke-dasharray:none;stroke-opacity:1" />
      <path
         sodipodi:nodetypes="zccz"
         inkscape:connector-curvature="0"
         id="rect6513"
         d="m 16.504392,7.0154881 c 1.852084,0 3.339358,1.3229167 3.339357,2.6458335 -1.322916,1.3229204 -5.291666,1.3229204 -6.614583,0 0,-1.3229168 1.423143,-2.6458335 3.275226,-2.6458335 z"
         style="fill:#c8c8fa;fill-opacity:1;stroke:#000000;stroke-width:0.26499999;stroke-linecap:round;stroke-linejoin:round;stroke-miterlimit:4;stroke-dasharray:none;stroke-opacity:1" />
      <g
         transform="matrix(0.66871551,0,0,0.89999995,6.3888402,1.402292)"
         id="g827"
         style="fill:#c8c8fa;fill-opacity:1">
        <path
           style="fill:#c8c8fa;stroke:#000000;stroke-width:0.14536566px;stroke-linecap:butt;stroke-linejoin:miter;stroke-opacity:1;fill-opacity:1"
           d="M 14.027825,5.4239586 H 13.229166"
           id="path821"
           inkscape:connector-curvature="0" />
        <path
           style="fill:#c8c8fa;stroke:#000000;stroke-width:0.14536566px;stroke-linecap:butt;stroke-linejoin:miter;stroke-opacity:1;fill-opacity:1"
           d="M 13.229166,4.7625002 V 6.085417"
           id="path823"
           inkscape:connector-curvature="0" />
      </g>
    </g>
    <g
       id="g838-3"
       transform="rotate(-90,15.147393,14.221352)"
       style="fill:#c8c8fa;fill-opacity:1">
      <path
         sodipodi:nodetypes="ccccc"
         inkscape:connector-curvature="0"
         id="rect6510-6"
         d="m 13.229166,10.054167 c 1.322917,1.322917 5.291667,1.322917 6.614583,0 1e-6,2.645833 1e-6,13.229166 0,15.875 -1.322916,1.322916 -5.291666,1.322916 -6.614583,0 0,0 1e-6,-13.229167 0,-15.875 z"
         style="fill:#c8c8fa;fill-opacity:1;stroke:#000000;stroke-width:0.26499999;stroke-linecap:round;stroke-linejoin:round;stroke-miterlimit:4;stroke-dasharray:none;stroke-opacity:1" />
      <path
         inkscape:connector-curvature="0"
         id="path829-7"
         d="M 16.536458,6.1031346 V 4.7802179"
         style="fill:#c8c8fa;stroke:#000000;stroke-width:0.26458332px;stroke-linecap:butt;stroke-linejoin:miter;stroke-opacity:1;fill-opacity:1" />
      <path
         inkscape:connector-curvature="0"
         id="rect6516-5"
         d="m 15.875,5.7927976 h 1.322916 V 7.1157142 H 15.875 Z"
         style="fill:#c8c8fa;fill-opacity:1;stroke:#000000;stroke-width:0.26499999;stroke-linecap:round;stroke-linejoin:miter;stroke-miterlimit:4;stroke-dasharray:none;stroke-opacity:1" />
      <path
         sodipodi:nodetypes="zccz"
         inkscape:connector-curvature="0"
         id="rect6513-3"
         d="m 16.504392,7.0154881 c 1.852084,0 3.339358,1.3229167 3.339357,2.6458335 -1.322916,1.3229204 -5.291666,1.3229204 -6.614583,0 0,-1.3229168 1.423143,-2.6458335 3.275226,-2.6458335 z"
         style="fill:#c8c8fa;fill-opacity:1;stroke:#000000;stroke-width:0.26499999;stroke-linecap:round;stroke-linejoin:round;stroke-miterlimit:4;stroke-dasharray:none;stroke-opacity:1" />
      <g
         transform="matrix(0.66871551,0,0,0.89999995,6.3888402,1.402292)"
         id="g827-5"
         style="fill:#c8c8fa;fill-opacity:1">
        <path
           style="fill:#c8c8fa;stroke:#000000;stroke-width:0.14536566px;stroke-linecap:butt;stroke-linejoin:miter;stroke-opacity:1;fill-opacity:1"
           d="M 14.027825,5.4239586 H 13.229166"
           id="path821-6"
           inkscape:connector-curvature="0" />
        <path
           style="fill:#c8c8fa;stroke:#000000;stroke-width:0.14536566px;stroke-linecap:butt;stroke-linejoin:miter;stroke-opacity:1;fill-opacity:1"
           d="M 13.229166,4.7625002 V 6.085417"
           id="path823-2"
           inkscape:connector-curvature="0" />
      </g>
    </g>
    <text
       xml:space="preserve"
       style="font-style:normal;font-weight:normal;font-size:6.50122881px;line-height:1.25;font-family:sans-serif;letter-spacing:0px;word-spacing:0px;fill:#000000;fill-opacity:1;stroke:none;stroke-width:0.16253072"
       x="17.643093"
       y="13.765709"
       id="text6521"
       transform="scale(0.99033345,1.0097609)"><tspan
         sodipodi:role="line"
         id="tspan6519"
         x="17.643093"
         y="13.765709"
         style="font-style:normal;font-variant:normal;font-weight:bold;font-stretch:normal;font-size:3.90073729px;font-family:'DejaVu Sans';-inkscape-font-specification:'DejaVu Sans Bold';stroke-width:0.16253072">N<tspan
   style="font-size:2.53547907px;baseline-shift:sub;stroke-width:0.16253072"
   id="tspan6523" /></tspan></text>
    <text
       xml:space="preserve"
       style="font-style:normal;font-weight:normal;font-size:6.50122881px;line-height:1.25;font-family:sans-serif;letter-spacing:0px;word-spacing:0px;fill:#000000;fill-opacity:1;stroke:none;stroke-width:0.16253072"
       x="17.643093"
       y="21.255081"
       id="text6521-9"
       transform="scale(0.99033345,1.0097609)"><tspan
         sodipodi:role="line"
         id="tspan6519-1"
         x="17.643093"
         y="21.255081"
         style="font-style:normal;font-variant:normal;font-weight:bold;font-stretch:normal;font-size:3.90073729px;font-family:'DejaVu Sans';-inkscape-font-specification:'DejaVu Sans Bold';stroke-width:0.16253072">N<tspan
   style="font-size:2.53547907px;baseline-shift:sub;stroke-width:0.16253072"
   id="tspan6523-2" /></tspan></text>
  </g>
</svg>
