<?xml version="1.0" encoding="UTF-8" standalone="no"?>
<!-- Created with Inkscape (http://www.inkscape.org/) -->

<svg
   xmlns:dc="http://purl.org/dc/elements/1.1/"
   xmlns:cc="http://creativecommons.org/ns#"
   xmlns:rdf="http://www.w3.org/1999/02/22-rdf-syntax-ns#"
   xmlns:svg="http://www.w3.org/2000/svg"
   xmlns="http://www.w3.org/2000/svg"
   xmlns:sodipodi="http://sodipodi.sourceforge.net/DTD/sodipodi-0.dtd"
   xmlns:inkscape="http://www.inkscape.org/namespaces/inkscape"
   width="128"
   height="128"
   viewBox="0 0 33.866666 33.866666"
   version="1.1"
   id="svg8"
   inkscape:version="0.92.3 (2405546, 2018-03-11)"
   sodipodi:docname="ferric_ore.svg">
  <defs
     id="defs2" />
  <sodipodi:namedview
     id="base"
     pagecolor="#ffffff"
     bordercolor="#666666"
     borderopacity="1.0"
     inkscape:pageopacity="0.0"
     inkscape:pageshadow="2"
     inkscape:zoom="7.9195959"
     inkscape:cx="23.327871"
     inkscape:cy="63.038133"
     inkscape:document-units="mm"
     inkscape:current-layer="layer2"
     showgrid="true"
     inkscape:window-width="2560"
     inkscape:window-height="1329"
     inkscape:window-x="0"
     inkscape:window-y="0"
     inkscape:window-maximized="1"
     inkscape:snap-grids="true"
     units="px"
     width="100px">
    <inkscape:grid
       type="xygrid"
       id="grid3713"
       units="px"
       spacingx="0.26458333"
       spacingy="0.26458333" />
  </sodipodi:namedview>
  <metadata
     id="metadata5">
    <rdf:RDF>
      <cc:Work
         rdf:about="">
        <dc:format>image/svg+xml</dc:format>
        <dc:type
           rdf:resource="http://purl.org/dc/dcmitype/StillImage" />
        <dc:title></dc:title>
      </cc:Work>
    </rdf:RDF>
  </metadata>
  <g
     inkscape:label="Border"
     inkscape:groupmode="layer"
     id="layer1"
     transform="translate(0,-263.13334)"
     sodipodi:insensitive="true">
    <rect
       id="rect3715"
       width="29.104166"
       height="29.104176"
       x="2.6458333"
       y="265.25"
       style="fill:#feffff;fill-opacity:1;stroke:#804000;stroke-width:1.58749998;stroke-linejoin:round;stroke-miterlimit:4;stroke-dasharray:none;stroke-opacity:1" />
  </g>
  <g
     inkscape:groupmode="layer"
     id="layer2"
     inkscape:label="Icon Content">
    <path
       style="fill:#966464;stroke:#020000;stroke-width:0.26458332px;stroke-linecap:butt;stroke-linejoin:miter;stroke-opacity:1;fill-opacity:1"
       d="M 9.2604166,14.022917 11.90625,11.377083 13.229166,8.7312502 15.875,10.054167 l 1.322916,1.322916 1.322917,2.645834"
       id="path4650"
       inkscape:connector-curvature="0" />
    <path
       style="fill:#fac8c8;stroke:#000000;stroke-width:0.26458332px;stroke-linecap:butt;stroke-linejoin:miter;stroke-opacity:1;fill-opacity:1"
       d="m 14.552083,14.022917 c 2.645833,-3.96875 2.645833,-3.96875 2.645833,-3.96875 L 19.843749,8.7312502 23.812499,10.054167 25.135416,12.7"
       id="path4652"
       inkscape:connector-curvature="0" />
    <path
       style="fill:#c89696;stroke:#000000;stroke-width:0.26458332px;stroke-linecap:butt;stroke-linejoin:miter;stroke-opacity:1;fill-opacity:1"
       d="M 7.9374999,14.022917 9.2604166,11.377083 11.90625,10.054167 13.229166,12.7"
       id="path4654"
       inkscape:connector-curvature="0" />
    <g
       id="g4638"
       transform="translate(-1.35e-6,-1.3229167)">
      <path
         style="fill:#feffff;fill-opacity:1;stroke:#000000;stroke-width:0.5291667;stroke-linecap:round;stroke-linejoin:round;stroke-miterlimit:4;stroke-dasharray:none;stroke-opacity:1"
         d="M 6.614583,14.022917 H 27.781251 L 25.135416,24.60625 H 9.2604165 Z"
         id="rect4635"
         inkscape:connector-curvature="0"
         sodipodi:nodetypes="ccccc" />
    </g>
    <text
       xml:space="preserve"
       style="font-style:normal;font-variant:normal;font-weight:normal;font-stretch:normal;font-size:6.3499999px;line-height:1.25;font-family:'DejaVu Sans';-inkscape-font-specification:'DejaVu Sans';letter-spacing:0px;word-spacing:0px;fill:#963200;fill-opacity:1;stroke:none;stroke-width:0.26458332"
       x="12.907"
       y="19.842575"
       id="text4658"><tspan
         sodipodi:role="line"
         id="tspan4656"
         x="12.907"
         y="19.842575"
         style="font-style:normal;font-variant:normal;font-weight:bold;font-stretch:normal;font-size:6.3499999px;font-family:'DejaVu Sans';-inkscape-font-specification:'DejaVu Sans Bold';fill:#963200;fill-opacity:1;stroke-width:0.26458332">Fe</tspan></text>
  </g>
</svg>
