<?xml version="1.0" encoding="UTF-8" standalone="no"?>
<!-- Created with Inkscape (http://www.inkscape.org/) -->

<svg
   xmlns:dc="http://purl.org/dc/elements/1.1/"
   xmlns:cc="http://creativecommons.org/ns#"
   xmlns:rdf="http://www.w3.org/1999/02/22-rdf-syntax-ns#"
   xmlns:svg="http://www.w3.org/2000/svg"
   xmlns="http://www.w3.org/2000/svg"
   xmlns:sodipodi="http://sodipodi.sourceforge.net/DTD/sodipodi-0.dtd"
   xmlns:inkscape="http://www.inkscape.org/namespaces/inkscape"
   width="128"
   height="128"
   viewBox="0 0 33.866666 33.866666"
   version="1.1"
   id="svg8"
   inkscape:version="0.92.3 (2405546, 2018-03-11)"
   sodipodi:docname="hunters.svg">
  <defs
     id="defs2" />
  <sodipodi:namedview
     id="base"
     pagecolor="#ffffff"
     bordercolor="#666666"
     borderopacity="1.0"
     inkscape:pageopacity="0.0"
     inkscape:pageshadow="2"
     inkscape:zoom="8.9609375"
     inkscape:cx="60.925754"
     inkscape:cy="48.420383"
     inkscape:document-units="mm"
     inkscape:current-layer="layer2"
     showgrid="true"
     inkscape:window-width="2560"
     inkscape:window-height="1329"
     inkscape:window-x="1200"
     inkscape:window-y="239"
     inkscape:window-maximized="1"
     inkscape:snap-grids="false"
     units="px"
     width="100px">
    <inkscape:grid
       type="xygrid"
       id="grid3713"
       units="px"
       spacingx="0.26458333"
       spacingy="0.26458333" />
  </sodipodi:namedview>
  <metadata
     id="metadata5">
    <rdf:RDF>
      <cc:Work
         rdf:about="">
        <dc:format>image/svg+xml</dc:format>
        <dc:type
           rdf:resource="http://purl.org/dc/dcmitype/StillImage" />
        <dc:title />
      </cc:Work>
    </rdf:RDF>
  </metadata>
  <g
     inkscape:label="Border"
     inkscape:groupmode="layer"
     id="layer1"
     transform="translate(0,-263.13334)"
     sodipodi:insensitive="true">
    <rect
       id="rect3715"
       width="29.104166"
       height="29.104176"
       x="2.6458333"
       y="265.25"
       style="fill:#feffff;fill-opacity:1;stroke:#112b00;stroke-width:1.58749998;stroke-linejoin:round;stroke-miterlimit:4;stroke-dasharray:none" />
  </g>
  <g
     inkscape:groupmode="layer"
     id="layer2"
     inkscape:label="Icon Content">
    <path
       style="fill:#000000;stroke:none;stroke-width:0.00207991"
       inkscape:connector-curvature="0"
       d="m 10.575939,24.674949 c 6.017179,0 11.379187,-0.0083 11.913724,-0.01872 l 0.975478,-0.01664 0.06864,-0.108155 c 0.411822,-0.646852 0.969238,-1.807442 1.258346,-2.629007 l 0.06864,-0.191351 -0.03536,-0.307827 c -0.01872,-0.168473 -0.04784,-0.478379 -0.06448,-0.69053 -0.03536,-0.418062 -0.06656,-0.617733 -0.0936,-0.590695 -0.01872,0.01872 -0.07072,0.24127 -0.251669,1.079474 -0.05616,0.262068 -0.110235,0.484619 -0.120635,0.495018 -0.02288,0.02288 -0.03536,-0.07696 -0.06448,-0.536616 -0.0208,-0.316147 -0.09984,-1.16267 -0.110235,-1.204268 -0.0042,-0.0104 -0.02288,0.133114 -0.04368,0.322386 -0.135194,1.277064 -0.264149,2.088229 -0.339026,2.113188 -0.06656,0.02288 -0.110235,-0.599014 -0.110235,-1.582811 0,-0.376464 -0.0042,-0.680131 -0.0083,-0.675971 -0.0062,0.0062 -0.0208,0.07488 -0.03328,0.153913 -0.01248,0.08112 -0.06032,0.299507 -0.106076,0.488779 -0.04576,0.189272 -0.08944,0.393103 -0.09567,0.453421 -0.0062,0.06032 -0.01456,0.106075 -0.01872,0.101915 -0.0042,-0.0042 -0.0312,-0.147673 -0.06032,-0.318226 -0.126874,-0.742528 -0.301587,-1.368581 -0.486699,-1.759604 l -0.0832,-0.172632 0.0104,0.176792 c 0.0062,0.09776 0.03536,0.347345 0.0624,0.555336 0.101915,0.769567 0.05616,0.900601 -0.301587,0.873562 -0.08736,-0.0062 -0.185112,-0.01872 -0.218391,-0.02704 -0.052,-0.01248 -0.05824,-0.0083 -0.04784,0.0208 0.0083,0.01872 0.02496,0.160153 0.03952,0.316147 0.02288,0.268308 0.0083,0.775806 -0.04368,1.537053 l -0.01248,0.187192 -0.03744,-0.297427 c -0.04368,-0.361904 -0.120634,-1.214668 -0.191351,-2.146467 -0.0728,-0.965078 -0.07696,-1.004597 -0.0936,-1.035795 -0.0208,-0.0416 -0.0416,0.578215 -0.0416,1.260425 v 0.592774 l -0.06448,-0.126874 c -0.0728,-0.149754 -0.122714,-0.187192 -0.168472,-0.133114 -0.052,0.05824 -0.05408,0.06656 -0.193432,0.580295 -0.149753,0.542856 -0.341105,1.160589 -0.355665,1.14603 -0.0042,-0.0062 0.0062,-0.23919 0.02288,-0.517898 0.06864,-1.110672 0.04368,-1.308263 -0.268308,-2.06743 l -0.09568,-0.22879 0.0042,0.967158 c 0.0042,0.69469 -0.0021,0.998357 -0.0208,1.079473 -0.01456,0.0624 -0.02912,0.118555 -0.03536,0.122715 -0.02704,0.02912 -0.120634,-0.04784 -0.197591,-0.162233 -0.103996,-0.153913 -0.268308,-0.480459 -0.339025,-0.675971 -0.06864,-0.191352 -0.09152,-0.434701 -0.118555,-1.218827 -0.0104,-0.347345 -0.02496,-0.727969 -0.02912,-0.846523 -0.0042,-0.116475 0,-0.212151 0.0104,-0.212151 0.0083,0 0.0042,-0.03952 -0.0104,-0.08944 -0.01456,-0.04784 -0.03328,-0.110236 -0.0416,-0.139354 l -0.01456,-0.052 0.04368,0.052 0.04368,0.052 -0.01456,-0.0624 c -0.0083,-0.03536 -0.02704,-0.114395 -0.0416,-0.176792 -0.03744,-0.143514 -0.03744,-0.162233 0.0021,-0.112315 0.0416,0.05408 0.03952,0.01456 -0.0104,-0.126875 -0.04992,-0.143514 -0.04992,-0.135194 -0.0104,-0.135194 0.03952,0 0.03952,-0.0104 0,-0.135194 -0.03952,-0.131035 -0.02704,-0.143514 0.0208,-0.0208 0.01872,0.05408 0.03952,0.0936 0.04368,0.08944 0.0021,-0.0042 -0.0062,-0.08944 -0.0208,-0.189272 -0.01456,-0.09984 -0.02288,-0.180952 -0.01664,-0.180952 0.0042,0 0.02704,0.02496 0.052,0.05408 0.03536,0.04784 0.04368,0.04992 0.06032,0.0208 0.02288,-0.03952 0.05408,-0.02496 0.07904,0.03744 0.01664,0.04368 0.01664,0.04368 0.03536,-0.0062 l 0.01872,-0.04992 0.02704,0.06656 c 0.03328,0.07904 0.06032,0.0832 0.06864,0.0062 l 0.0062,-0.05616 0.052,0.0832 0.052,0.0832 0.0104,-0.0728 0.01248,-0.0728 0.03536,0.06656 c 0.04784,0.09152 0.0624,0.08528 0.052,-0.01456 -0.0042,-0.04576 -0.0021,-0.0832 0.0042,-0.0832 0.0083,0 0.03328,0.02704 0.05824,0.0624 0.0624,0.0832 0.08736,0.07904 0.08736,-0.01456 0,-0.0728 0.0021,-0.07488 0.0312,-0.03536 0.02912,0.03952 0.02912,0.03952 0.0312,-0.0021 0.0021,-0.02288 0.0083,-0.02912 0.01456,-0.01664 0.01664,0.04368 0.04576,0.0312 0.03328,-0.01456 -0.01456,-0.05616 0.02496,-0.052 0.06448,0.0042 0.03328,0.04576 0.03328,0.04576 0.03328,-0.0208 0,-0.03536 0.0021,-0.06656 0.0062,-0.06656 0.0042,0 0.06448,0.02288 0.135194,0.052 0.07072,0.02912 0.133114,0.052 0.139354,0.052 0.0083,0 0.0062,-0.04368 -0.0021,-0.09568 l -0.01248,-0.0936 0.07696,0.0312 c 0.106076,0.04576 0.120635,0.0416 0.08112,-0.01872 -0.01872,-0.02912 -0.02912,-0.05824 -0.02288,-0.06656 0.0083,-0.0062 0.01872,0.0042 0.02704,0.02288 0.02288,0.05824 0.05616,0.03744 0.04576,-0.02912 -0.0104,-0.07488 0.0062,-0.07904 0.05408,-0.01664 0.03536,0.04784 0.03536,0.04784 0.02704,-0.0208 -0.0083,-0.07488 0,-0.0832 0.03952,-0.02912 0.02496,0.0312 0.02704,0.02912 0.02912,-0.02288 0,-0.0624 0.0062,-0.06656 0.06448,-0.03536 0.0208,0.01248 0.03952,0.01456 0.03952,0.0062 0,-0.0083 0.01872,-0.03952 0.03952,-0.06656 l 0.03952,-0.052 0.04992,0.06032 c 0.04368,0.04992 0.05616,0.05408 0.09568,0.03328 0.03744,-0.0208 0.04784,-0.01456 0.07904,0.03744 0.0208,0.03328 0.06032,0.0728 0.08944,0.08528 0.114396,0.052 0.411823,0.249589 0.47838,0.320306 0.04784,0.04992 0.09152,0.07488 0.128954,0.07488 0.03744,0 0.0624,0.01248 0.06864,0.03744 0.01872,0.05408 0.316147,0.149754 0.47422,0.149754 0.176792,0 0.413902,-0.05824 0.528297,-0.128955 0.145594,-0.09152 0.413902,-0.316146 0.45758,-0.378543 0.0312,-0.04784 0.02912,-0.05616 -0.0042,-0.116475 -0.0208,-0.03328 -0.04576,-0.0624 -0.05408,-0.0624 -0.0083,0 -0.01664,-0.01664 -0.01664,-0.03744 0,-0.09152 -0.07072,-0.262069 -0.199671,-0.47214 -0.164313,-0.272468 -0.24127,-0.424301 -0.284948,-0.561575 -0.03952,-0.131035 -0.06656,-0.457581 -0.03952,-0.4763 0.01248,-0.0062 0.05616,-0.101915 0.09984,-0.212151 0.0624,-0.158073 0.09568,-0.21215 0.158073,-0.262068 0.06448,-0.04992 0.08736,-0.08944 0.122715,-0.207991 0.04368,-0.139354 0.04368,-0.151834 0.01248,-0.366064 -0.02496,-0.176793 -0.05408,-0.274548 -0.139354,-0.47214 -0.05824,-0.137274 -0.133114,-0.293267 -0.168473,-0.345265 -0.0728,-0.114395 -0.0728,-0.122715 -0.01664,-0.122715 0.0312,0 0.03952,-0.0104 0.0312,-0.0312 -0.0062,-0.01872 0,-0.0312 0.0208,-0.0312 0.02288,0 0.02704,-0.01248 0.01872,-0.04368 -0.0083,-0.02704 -0.0062,-0.03952 0.0042,-0.03328 0.01248,0.0083 0.01872,-0.03328 0.01456,-0.108155 -0.0062,-0.09984 0,-0.126874 0.03328,-0.158073 0.02288,-0.0208 0.0416,-0.05824 0.0416,-0.0832 0,-0.02704 0.0208,-0.06032 0.04576,-0.07696 0.02496,-0.01664 0.04576,-0.052 0.04992,-0.08112 0.0021,-0.02704 0.0416,-0.153913 0.08736,-0.278708 0.06864,-0.193431 0.09776,-0.247509 0.191352,-0.349425 0.09983,-0.110235 0.108155,-0.124794 0.08736,-0.170552 -0.02704,-0.05616 -0.0728,-0.06448 -0.164313,-0.02912 -0.0312,0.01248 -0.147674,0.03952 -0.257909,0.0624 -0.110235,0.0208 -0.318226,0.07696 -0.45966,0.122715 -0.141434,0.04576 -0.320306,0.09568 -0.395183,0.110235 l -0.139354,0.02912 -0.05616,-0.05824 -0.05824,-0.06032 -0.04368,0.0416 c -0.05616,0.052 -0.0728,0.052 -0.0728,0 0,-0.04992 -0.01664,-0.052 -0.06656,-0.0062 -0.03536,0.0312 -0.03744,0.0312 -0.03952,-0.01664 v -0.04992 l -0.02288,0.04576 c -0.03744,0.07696 -0.05824,0.05408 -0.05824,-0.06032 v -0.108155 l -0.0624,0.06032 -0.0624,0.06032 v -0.0624 l -0.0021,-0.06032 -0.03536,0.0624 c -0.03328,0.06032 -0.03536,0.06032 -0.0416,0.01456 -0.0062,-0.03952 -0.01248,-0.04368 -0.03744,-0.02496 -0.02288,0.0208 -0.03328,0.01456 -0.05408,-0.0312 l -0.02496,-0.05616 -0.04576,0.05616 -0.04576,0.05824 -0.01456,-0.06864 -0.01456,-0.06656 -0.05824,0.05616 -0.05824,0.05616 -0.01456,-0.08944 c -0.01456,-0.08112 -0.01872,-0.08528 -0.04368,-0.04992 -0.02912,0.03952 -0.0312,0.03744 -0.05616,-0.052 -0.0042,-0.0208 -0.01872,-0.0083 -0.04368,0.03536 -0.04368,0.08528 -0.0624,0.08736 -0.04992,0.0062 0.01248,-0.07696 0,-0.07904 -0.06032,-0.0062 l -0.04784,0.05824 0.0104,-0.145594 0.01248,-0.145594 -0.04576,0.114395 c -0.04784,0.122715 -0.08112,0.172633 -0.08112,0.124795 0,-0.01664 -0.0104,-0.06864 -0.02288,-0.114395 l -0.02288,-0.08112 -0.02912,0.06656 c -0.03328,0.07904 -0.05824,0.08736 -0.04576,0.01456 0.01456,-0.06864 -0.0104,-0.06656 -0.03952,0.0042 l -0.0208,0.05824 -0.02704,-0.07072 -0.02704,-0.07072 -0.02912,0.05616 c -0.03744,0.0728 -0.04992,0.06864 -0.03536,-0.01456 l 0.0104,-0.06656 -0.04784,0.05616 c -0.02704,0.03328 -0.05616,0.05824 -0.0624,0.05824 -0.0083,0 -0.02496,-0.03328 -0.03744,-0.0728 -0.02912,-0.08736 -0.04784,-0.09152 -0.07488,-0.01664 l -0.0208,0.05824 -0.06032,-0.0936 -0.05824,-0.0936 -0.02496,0.06032 -0.02496,0.06032 -0.03744,-0.112315 -0.03744,-0.112316 -0.02912,0.06864 -0.02704,0.06656 -0.116475,-0.07696 c -0.09776,-0.06448 -0.122715,-0.0728 -0.153914,-0.052 -0.04784,0.02912 -0.05616,0.01664 -0.07696,-0.101915 l -0.01456,-0.09152 -0.02288,0.08112 -0.02288,0.08112 -0.03952,-0.185112 c -0.04784,-0.24127 -0.07696,-0.287028 -0.06032,-0.101916 l 0.01248,0.145594 -0.05408,-0.0624 -0.052,-0.0624 -0.0021,0.0624 c -0.0021,0.04784 -0.01664,0.02288 -0.0624,-0.103995 -0.04784,-0.141434 -0.05824,-0.158073 -0.06448,-0.103996 -0.0083,0.05824 -0.01248,0.05408 -0.08944,-0.07904 -0.04576,-0.07696 -0.08736,-0.139354 -0.0936,-0.139354 -0.0062,0 -0.0104,0.04368 -0.0083,0.09776 0.0042,0.09567 0.0021,0.0936 -0.02288,-0.03536 l -0.02912,-0.135194 -0.0021,0.207991 -0.0042,0.207991 -0.0936,-0.183032 c -0.04992,-0.09984 -0.09568,-0.180952 -0.101916,-0.180952 -0.0062,0 -0.0062,0.05408 0,0.118555 l 0.01248,0.120634 -0.0624,-0.164313 c -0.03536,-0.08944 -0.06864,-0.170552 -0.07696,-0.176792 -0.0062,-0.0062 -0.0104,0.0312 -0.0062,0.08528 0.0062,0.05616 0.0021,0.09984 -0.0042,0.09984 -0.0062,0 -0.02912,-0.03744 -0.04992,-0.0832 -0.05824,-0.126875 -0.07696,-0.124795 -0.06864,0.0083 0.0021,0.06448 0.0021,0.116475 -0.0042,0.116475 -0.0062,0 -0.02912,-0.04368 -0.052,-0.09983 l -0.0416,-0.09776 -0.0104,0.0728 -0.0104,0.0728 -0.08528,-0.07904 c -0.08944,-0.07904 -0.112315,-0.07488 -0.112315,0.02288 -0.0021,0.09152 -0.03328,0.0936 -0.170552,0.01664 l -0.135195,-0.07488 0.0104,0.06864 0.0104,0.06656 -0.07072,-0.08736 c -0.03952,-0.04784 -0.07696,-0.08736 -0.0832,-0.08736 -0.0083,-0.0021 -0.0208,0.05824 -0.02912,0.133114 -0.0062,0.07488 -0.01872,0.135195 -0.02288,0.135195 -0.0062,0 -0.07488,-0.052 -0.151833,-0.114395 -0.07904,-0.0624 -0.149754,-0.114395 -0.158073,-0.114395 -0.0083,0 -0.0104,0.0416 -0.0062,0.0936 0.0042,0.052 0.0021,0.0936 -0.0042,0.0936 -0.0042,0 -0.04784,-0.03744 -0.09568,-0.08528 l -0.08528,-0.0832 -0.01456,0.0832 c -0.0062,0.04784 -0.02496,0.08528 -0.03952,0.08528 -0.01248,0 -0.106075,-0.01456 -0.207991,-0.03328 -0.180952,-0.03328 -0.180952,-0.03328 -0.21839,0.0104 -0.03952,0.052 -0.22463,0.133115 -0.409742,0.180953 -0.06864,0.01872 -0.141434,0.04992 -0.162233,0.0728 -0.0208,0.0208 -0.06032,0.03952 -0.08944,0.03952 -0.02704,0 -0.151834,0.03328 -0.274549,0.07072 -0.122714,0.03952 -0.287027,0.0832 -0.368144,0.09568 -0.07904,0.01456 -0.440941,0.09152 -0.800765,0.172632 l -0.655172,0.149754 -0.293267,-0.0062 c -0.332786,-0.0083 -0.415982,0.0062 -0.557416,0.108155 -0.05616,0.03952 -0.135194,0.07696 -0.176792,0.0832 -0.120635,0.0208 -0.563656,0.164312 -0.563656,0.183032 0,0.0083 0.04368,0.01872 0.09984,0.01872 0.07696,0.0021 0.052,0.0104 -0.128955,0.0416 -0.124794,0.0208 -0.22879,0.0416 -0.235029,0.04576 -0.0042,0.0062 0.07904,0.02704 0.185112,0.04784 0.210071,0.04368 0.21215,0.0416 -0.170553,0.06656 -0.23087,0.01456 -0.23711,0.01664 -0.180952,0.04784 l 0.06032,0.0312 -0.143514,0.06448 c -0.149753,0.06656 -0.370224,0.23087 -0.607333,0.45342 -0.174713,0.166393 -0.297427,0.388943 -0.451341,0.821565 -0.05408,0.153913 -0.131034,0.326546 -0.168472,0.384783 -0.03744,0.05616 -0.06864,0.110235 -0.06864,0.118555 0,0.0104 0.02912,0.02912 0.06448,0.04368 l 0.06448,0.02496 -0.04368,0.05616 c -0.052,0.06448 -0.05408,0.08112 -0.01248,0.06656 0.0416,-0.01664 0.03952,-0.0021 -0.01456,0.101915 -0.04368,0.0832 -0.174712,0.482539 -0.197591,0.603174 -0.0062,0.03536 -0.08112,0.126875 -0.189272,0.23711 -0.160153,0.164313 -0.214231,0.23711 -0.407663,0.544936 l -0.05824,0.08944 0.08528,-0.01456 c 0.09152,-0.01456 0.09776,-0.0104 0.06032,0.052 -0.0208,0.0312 -0.01872,0.04784 0.01456,0.0832 0.03744,0.0416 0.03744,0.04992 0.0042,0.23295 -0.02704,0.155993 -0.04784,0.210071 -0.112315,0.301587 -0.153914,0.220471 -0.145594,0.203831 -0.110236,0.183032 0.01664,-0.0083 -0.03536,0.052 -0.116475,0.137274 -0.143513,0.151834 -0.4347008,0.517898 -0.3868628,0.488779 0.0416,-0.02496 0.02912,0.0021 -0.08528,0.168473 -0.0624,0.08944 -0.122715,0.193431 -0.135194,0.23087 l -0.02288,0.06656 0.07488,-0.05616 0.07488,-0.05616 -0.06864,0.122714 c -0.06864,0.122715 -0.06864,0.124795 -0.01456,0.07488 0.06448,-0.05824 0.06864,-0.04368 0.02496,0.08112 -0.01664,0.04992 -0.02704,0.0936 -0.0208,0.09984 0.0062,0.0062 0.03952,-0.01456 0.0728,-0.04784 0.0728,-0.07072 0.07904,-0.05824 0.0208,0.03536 -0.05408,0.08736 -0.05408,0.116475 0,0.06864 0.0416,-0.03744 0.0416,-0.03536 0.0416,0.750847 -0.0021,0.888122 0.0021,0.875643 -0.139354,0.455501 -2.188917,0.458206 0.8778698,4.92927 0.8778698,4.92927 z m 1.734645,-7.042571 c 0.05616,0.101916 0.23087,1.010836 0.23087,1.193869 0,0.09775 -0.0062,0.110235 -0.110235,0.21007 -0.06032,0.05824 -0.151834,0.139354 -0.203832,0.180953 -0.04992,0.0416 -0.128954,0.126874 -0.170552,0.187192 -0.07072,0.103995 -0.08112,0.139353 -0.133114,0.45134 -0.0312,0.185112 -0.0624,0.336945 -0.06864,0.336945 -0.0062,0 -0.02704,-0.0416 -0.04784,-0.09152 -0.0208,-0.04992 -0.052,-0.108155 -0.06864,-0.128954 -0.02912,-0.03536 -0.0312,-0.02288 -0.0208,0.147674 0.0062,0.101915 0.0312,0.401422 0.05408,0.665571 0.0416,0.46174 0.03952,0.809085 -0.0021,0.707169 -0.03744,-0.08944 -0.141434,-0.678051 -0.164313,-0.91516 -0.05616,-0.626053 -0.143513,-1.035795 -0.264148,-1.239627 -0.0624,-0.103995 -0.249589,-0.320306 -0.23087,-0.266228 0.199671,0.557416 0.407662,1.522494 0.443021,2.046631 0.0062,0.101916 0.01664,0.24127 0.02288,0.307827 0.01664,0.178872 -0.01872,0.135194 -0.103996,-0.126874 -0.0936,-0.291188 -0.23503,-0.93388 -0.426381,-1.950956 -0.07072,-0.363984 -0.07488,-0.409742 -0.03328,-0.299507 l 0.02704,0.0728 0.01456,-0.114395 0.01664,-0.112315 0.08112,0.09152 0.0832,0.0936 -0.01456,-0.0832 c -0.0062,-0.04576 -0.01664,-0.103995 -0.02288,-0.131034 -0.01248,-0.0624 0.0042,-0.05824 0.03952,0.0104 l 0.0312,0.05616 0.052,-0.103996 0.052,-0.101915 0.02288,0.05824 c 0.01248,0.03328 0.02496,0.07072 0.02704,0.0832 0.0021,0.01456 0.0083,-0.04576 0.01456,-0.131035 l 0.01248,-0.155993 0.03536,0.0728 0.03328,0.0728 0.0042,-0.135194 c 0.0042,-0.147674 0.03744,-0.122715 0.03952,0.0312 0.0042,0.162233 0.04368,0.02496 0.04576,-0.155993 v -0.176792 l 0.0728,0.207991 0.07072,0.207991 -0.0104,-0.166393 c -0.0208,-0.359824 -0.02912,-0.621893 -0.01872,-0.592774 0.0042,0.01664 0.02288,0.124794 0.03744,0.239189 l 0.02912,0.207991 0.0042,-0.311986 0.0062,-0.311987 0.0312,0.353585 c 0.03536,0.405582 0.0624,0.405582 0.06656,0 0.0042,-0.287028 0.02288,-0.284948 0.05824,0.0104 l 0.0208,0.155994 -0.0042,-0.172633 c -0.0021,-0.193431 0.01664,-0.22463 0.03744,-0.0624 0.02912,0.23087 0.06032,0.359824 0.07696,0.316146 0.0083,-0.0208 0.01664,-0.08112 0.01872,-0.133114 0.0021,-0.07488 0.0062,-0.08528 0.02288,-0.052 0.01248,0.02912 0.01664,0.0062 0.0062,-0.0728 -0.01456,-0.149753 0.0062,-0.122714 0.05408,0.06448 l 0.03744,0.153913 0.0021,-0.09984 c 0.0021,-0.05408 0.01248,-0.09776 0.02288,-0.09776 0.01248,0 0.0208,-0.0312 0.0208,-0.06864 0,-0.03952 -0.0062,-0.05616 -0.01664,-0.0416 -0.0104,0.01664 -0.03536,-0.052 -0.06448,-0.172632 -0.02704,-0.110235 -0.03952,-0.205911 -0.0312,-0.216311 0.01664,-0.01456 0.06448,-0.0312 0.116475,-0.03952 0.0083,0 0.02496,0.01456 0.03536,0.03744 z m 2.718442,0.04368 c -0.0062,0.04576 -0.0083,0.0832 -0.0021,0.0832 0.0062,0 0.02496,-0.03744 0.04368,-0.0832 0.03744,-0.08944 0.07072,-0.110235 0.07072,-0.03952 0,0.03328 0.0083,0.03952 0.03744,0.02912 0.08112,-0.03328 0.09775,-0.02288 0.126874,0.0936 0.02704,0.108155 0.01456,0.276628 -0.0312,0.467979 -0.0104,0.03744 -0.0062,0.03744 0.0312,-0.0083 0.04576,-0.052 0.05616,-0.03536 0.02496,0.04368 -0.0083,0.02704 -0.02288,0.07488 -0.0312,0.106075 l -0.01456,0.06032 0.06448,-0.04576 c 0.07488,-0.052 0.07488,-0.052 0.0208,0.06656 -0.03328,0.07904 -0.03744,0.110235 -0.0208,0.22671 0.02496,0.180952 0.07488,1.173069 0.06864,1.39146 -0.0042,0.141434 -0.02288,0.22463 -0.08736,0.415982 -0.04368,0.131034 -0.08528,0.22463 -0.09152,0.207991 -0.0062,-0.01664 -0.09152,-0.378544 -0.191352,-0.800766 -0.183032,-0.790365 -0.22047,-0.927639 -0.205911,-0.759167 0.0104,0.110236 0.08528,1.360261 0.101916,1.715926 0.0062,0.137274 0.01664,0.270388 0.02288,0.295347 0.0083,0.03952 -0.0042,0.04992 -0.07904,0.06864 -0.295347,0.07488 -0.478379,0.176793 -0.553256,0.307827 -0.02288,0.0416 -0.06864,0.174712 -0.09983,0.295347 -0.05616,0.222551 -0.166393,0.4659 -0.23919,0.532457 -0.04784,0.0416 -0.03328,0.07488 -0.151834,-0.366064 -0.04992,-0.189272 -0.172632,-0.644772 -0.272468,-1.014996 l -0.180952,-0.669731 0.04368,-0.266229 c 0.02496,-0.145593 0.0728,-0.353584 0.110235,-0.46174 l 0.06448,-0.197591 0.22047,-0.216311 c 0.120635,-0.120634 0.289108,-0.268308 0.370224,-0.328625 0.201751,-0.147674 0.22879,-0.180953 0.301587,-0.336946 0.03536,-0.07488 0.131034,-0.262069 0.216311,-0.420142 0.08528,-0.155993 0.164313,-0.316146 0.176792,-0.353584 0.02496,-0.07696 0.07072,-0.122715 0.118555,-0.122715 0.02288,0 0.02704,0.01872 0.01664,0.0832 z m 3.375694,0.611492 0.0021,0.307827 0.052,-0.01248 c 0.07072,-0.01872 0.135194,0.07072 0.264148,0.353585 0.120635,0.264148 0.153914,0.366064 0.172633,0.538696 0.01456,0.112316 0.01664,0.118555 0.03744,0.0728 0.01872,-0.04576 0.02288,-0.03744 0.03744,0.0832 0.0104,0.07488 0.03328,0.21839 0.04992,0.322386 0.01664,0.101915 0.06448,0.519977 0.103996,0.92556 0.03952,0.405582 0.07696,0.779966 0.0832,0.831964 0.0208,0.189272 -0.01248,0.03952 -0.114395,-0.519978 -0.106075,-0.571975 -0.245429,-1.250026 -0.262068,-1.266665 -0.03536,-0.03536 -0.0208,0.145594 0.106075,1.306183 0.052,0.47422 0.09152,0.875643 0.08736,0.894362 -0.0062,0.01872 -0.0104,0.01248 -0.01248,-0.01664 -0.0021,-0.06656 -0.361905,-1.85528 -0.370224,-1.846961 -0.0021,0.0042 0.01248,0.133115 0.03536,0.287028 0.02288,0.153913 0.0416,0.334866 0.0416,0.403503 0.0021,0.06864 0.04576,0.349424 0.101916,0.623973 0.05408,0.274548 0.09776,0.503338 0.0936,0.505418 -0.0083,0.0104 -0.160153,-0.47006 -0.372304,-1.175149 -0.0936,-0.311987 -0.174712,-0.574056 -0.180952,-0.580295 -0.0083,-0.0062 -0.0083,0.02496 -0.0042,0.06864 0.01456,0.120634 0.09152,1.410179 0.08944,1.487135 0,0.03744 -0.02704,-0.05408 -0.06032,-0.201751 -0.03328,-0.149753 -0.08112,-0.374384 -0.110235,-0.499178 l -0.04992,-0.22879 -0.0083,0.544936 c -0.0083,0.501258 -0.01664,0.596934 -0.052,0.561576 -0.0062,-0.0062 -0.04784,-0.23919 -0.09152,-0.517898 -0.143513,-0.908921 -0.22463,-1.326982 -0.257908,-1.326982 -0.0104,0 -0.01456,0.297427 -0.0083,0.711329 l 0.0104,0.713409 -0.151833,-1.002517 c -0.197591,-1.324902 -0.359824,-2.329499 -0.382703,-2.383577 -0.02496,-0.05824 -0.0208,-0.0062 0.0936,1.254186 0.141433,1.562013 0.22047,2.597808 0.21631,2.859876 v 0.103996 l -0.0624,-0.135194 c -0.174713,-0.376464 -0.45966,-1.16891 -0.519978,-1.445538 l -0.02704,-0.124794 -0.03744,0.322386 c -0.01872,0.178872 -0.08944,0.586534 -0.160153,0.91516 -0.124794,0.596934 -0.189272,1.000437 -0.189272,1.193868 v 0.106076 L 16.44132,22.986075 c -0.24127,-0.484619 -0.551176,-0.92764 -0.850683,-1.214668 l -0.101916,-0.09776 0.147674,-0.07488 c 0.114395,-0.05616 0.168473,-0.09984 0.23087,-0.183033 0.122715,-0.166392 0.284948,-0.465899 0.353585,-0.651011 0.05408,-0.151834 0.06032,-0.201752 0.0728,-0.534537 0.0208,-0.544937 0.106076,-1.354022 0.170553,-1.603611 0.05408,-0.214231 0.170553,-0.511658 0.23087,-0.590694 l 0.05824,-0.07696 0.0104,0.0936 0.0104,0.09152 0.04784,-0.08944 c 0.05616,-0.106075 0.0728,-0.110235 0.0624,-0.01456 -0.0104,0.0936 0.0083,0.09152 0.08112,-0.0042 l 0.05824,-0.07696 0.0104,0.06448 0.0104,0.06448 0.195511,-0.08112 c 0.106076,-0.04368 0.201752,-0.08112 0.212151,-0.08112 0.0104,0 0.0083,0.02496 -0.0042,0.05408 -0.0104,0.0312 -0.01664,0.06032 -0.0104,0.06448 0.0042,0.0042 0.101916,-0.03952 0.21839,-0.09567 0.114396,-0.05824 0.214231,-0.106076 0.220471,-0.106076 0.0062,0 0.0104,0.02288 0.0104,0.05408 v 0.052 l 0.06864,-0.052 c 0.08736,-0.06656 0.09775,-0.06656 0.09775,-0.0021 v 0.052 l 0.0832,-0.0416 c 0.101915,-0.052 0.103995,-0.052 0.103995,0.0042 0,0.04368 0.0042,0.04368 0.06864,-0.0208 l 0.06656,-0.06864 0.01456,0.07904 c 0.0083,0.04368 0.01456,0.21839 0.01456,0.388943 z m -8.165727,0.675971 c -0.0416,0.07072 -0.06864,0.0832 -0.06864,0.0312 0,-0.02912 0.08528,-0.116475 0.09984,-0.101915 0.0021,0.0021 -0.0104,0.03328 -0.0312,0.07072 z m 0.09568,0.06656 c -0.02288,0.05824 -0.03744,0.112315 -0.0312,0.116475 0.01664,0.01872 0.09776,-0.03744 0.172632,-0.120635 0.0728,-0.08112 0.07488,-0.08112 0.22671,-0.08112 h 0.151834 l -0.04368,0.07696 c -0.02496,0.04368 -0.06864,0.112315 -0.09776,0.151834 -0.03536,0.04992 -0.0083,0.0312 0.08736,-0.06032 0.0936,-0.09152 0.141434,-0.124794 0.147674,-0.103995 0.0042,0.01664 0.02288,0.131034 0.0416,0.257908 0.07488,0.530378 0.44926,3.103226 0.45966,3.151064 0.0042,0.0312 -0.0083,0.01664 -0.03328,-0.03744 -0.02288,-0.04992 -0.07072,-0.224631 -0.101915,-0.388943 -0.03328,-0.164313 -0.131034,-0.544937 -0.216311,-0.846524 -0.166393,-0.582375 -0.309906,-1.15019 -0.336945,-1.318663 -0.0083,-0.05616 -0.01872,-0.09152 -0.02288,-0.07904 -0.0042,0.01248 0.02496,0.307826 0.06448,0.655171 0.110235,0.952599 0.162233,1.510015 0.137274,1.480896 -0.0083,-0.0083 -0.05824,-0.139354 -0.114395,-0.287027 -0.112315,-0.305747 -0.160153,-0.407663 -0.23295,-0.505418 -0.0624,-0.0832 -0.08944,-0.07072 -0.09152,0.04368 -0.0021,0.110235 -0.255829,-1.520415 -0.301587,-1.936397 l -0.01456,-0.131034 0.08112,-0.07072 c 0.04576,-0.03952 0.08736,-0.07072 0.09568,-0.0728 0.0062,0 -0.0062,0.04784 -0.02704,0.106076 z m 9.070484,2.165183 c 0.09984,0.303667 0.09984,0.305747 0.04784,0.45342 -0.0062,0.01664 -0.04368,-0.131034 -0.08112,-0.330705 -0.03744,-0.197592 -0.07488,-0.380624 -0.0832,-0.405583 -0.0083,-0.02288 -0.0062,-0.03744 0.0021,-0.02912 0.0104,0.0104 0.06032,0.149753 0.114395,0.311986 z m -0.942199,0.811165 c -0.0062,0.01664 -0.01248,0.0104 -0.01248,-0.01248 -0.0021,-0.02288 0.0042,-0.03536 0.0104,-0.02704 0.0062,0.0062 0.0083,0.02496 0.0021,0.03952 z m 0.586534,0.397263 c 0.02704,0.02704 0.0312,0.23087 0.0042,0.21423 -0.0104,-0.0062 -0.03536,-0.08528 -0.05408,-0.172632 -0.0208,-0.08944 -0.03952,-0.174713 -0.04368,-0.193432 -0.0062,-0.01664 0.0083,0.0042 0.02912,0.04784 0.02288,0.04368 0.04992,0.08944 0.06448,0.103996 z"
       id="path825"
       sodipodi:nodetypes="cccccccccccccccsccccsccccccccccccccscccccccccccccccscccccccccsccccsccccccccccccccscscccccsscsccccccccccccscccccccscscccsscccccccccscsccccssccccccccccccsccccsccccccccccccccccccccccccccsccccccccccccsccccccccccccccccccccccccccsccccccscccccsccscccccccccccccscssscccsccccscccccccscccccccccccscccccccccccccccccccccccccscccccccccccssccccccccccccccccccccccccccccccccccccccccccccccccccccccsscccccccccsccccccccccccccccccccccccccccccccscccccccccccccsccccscccccccccccccsccccccccccccsccccccccccccccccccccscccssccsccscccccccscccccsccccccccccccccccccccccccccccccccccccccccccc" />
  </g>
</svg>
